22

19 27
2
0 22
2 8
25 1

4 43
8
1 22
1 16
1 32
2 21
1 31
0 23
2 19
2 20
52 38

15 41
42
14 28
13 29
2 39
3 23
0 11
11 4
8 30
6 25
6 13
14 18
14 38
8 4
2 36
3 0
13 31
5 7
2 35
6 38
8 15
7 2
2 30
8 4
6 41
10 36
15 20
5 10
8 3
11 29
5 17
15 35
11 9
11 8
9 25
1 23
7 41
8 21
15 40
7 9
2 11
8 21
13 16
5 9
57 36

13 34
17
6 15
9 17
9 17
4 12
1 29
9 9
5 7
8 6
9 7
12 14
11 10
10 15
5 6
9 22
9 34
1 12
5 34
7 42

5 5
2
3 0
3 5
5 1

10 72
4
8 65
3 14
1 36
10 8
63 43

7 19
34
6 8
7 17
5 13
2 11
4 0
3 16
7 2
0 11
0 8
4 14
5 4
2 6
5 6
2 5
5 7
5 16
5 3
1 13
3 13
5 9
6 17
2 8
2 6
0 12
6 17
4 9
0 16
4 1
1 3
3 16
3 0
2 12
6 10
5 11
95 18

6 49
26
4 33
3 3
6 41
1 6
0 23
5 28
4 11
6 17
3 3
6 27
4 0
2 10
5 5
4 12
5 9
0 35
3 30
1 23
3 41
2 19
5 25
0 16
0 11
1 12
6 24
1 20
37 38

11 46
39
1 20
7 34
4 8
9 1
7 3
1 36
0 8
2 44
2 11
7 38
2 26
9 7
11 2
8 18
10 39
7 35
8 44
1 37
5 4
5 27
11 26
1 46
4 46
8 37
9 16
2 14
7 30
3 39
2 17
3 4
7 42
10 46
9 23
7 27
7 18
10 24
6 40
5 15
3 34
94 30

1 20
38
0 19
0 3
0 1
0 19
0 6
1 6
1 16
0 4
1 0
0 8
0 16
0 14
1 2
1 3
0 13
1 2
1 5
0 8
0 13
1 17
0 0
0 1
0 9
1 9
1 4
1 10
1 14
0 9
1 9
1 19
1 18
0 5
0 2
0 18
0 11
1 12
0 17
0 15
78 24

18 60
8
15 2
0 30
5 7
3 48
13 22
3 28
11 35
13 42
45 4

14 79
32
10 3
5 60
8 69
9 19
3 27
0 26
13 10
14 67
11 73
4 79
3 4
12 70
10 39
4 28
13 32
14 43
7 32
13 51
7 13
0 64
14 59
14 74
12 46
5 14
13 39
1 40
0 1
4 18
5 31
4 68
2 14
12 3
50 33

25 24
31
3 18
24 2
16 0
6 14
22 3
21 22
15 7
24 17
18 8
13 24
13 4
25 23
16 19
21 3
13 17
12 1
4 8
18 1
7 8
9 11
22 21
3 16
25 19
24 8
8 13
11 4
11 2
11 5
6 5
21 0
11 3
15 4

4 65
18
3 15
4 28
4 32
4 33
3 46
3 60
0 54
2 26
0 54
4 5
1 10
3 4
2 53
1 7
4 61
2 61
0 30
4 38
28 5

19 13
37
13 6
19 13
8 6
1 2
4 9
4 1
11 3
4 2
17 6
5 3
2 9
16 10
13 8
3 7
7 1
11 9
17 7
19 10
17 2
6 13
4 9
19 5
14 3
5 9
5 5
19 11
17 1
6 8
5 0
18 7
2 12
0 11
6 12
11 11
10 11
6 2
5 4
45 15

11 11
6
10 11
6 9
1 8
4 3
2 6
1 10
41 20

21 29
35
1 25
18 24
19 23
3 28
19 9
17 11
6 10
13 14
8 5
16 8
2 7
12 6
11 4
17 14
3 5
9 12
8 8
10 17
13 25
2 10
18 3
8 9
4 25
20 5
10 2
2 14
16 13
4 28
0 11
7 16
0 14
6 5
8 23
12 25
6 0
33 15

19 58
13
14 43
3 9
9 2
13 28
19 7
9 24
6 40
3 25
9 29
6 40
1 45
5 26
15 40
88 40

22 63
9
2 4
0 56
10 53
11 37
3 38
5 46
0 61
16 19
9 62
14 30

2 40
2
0 39
1 0
24 2

1 80
1
0 0
25 1

25 25
4
0 0
1 1
1 0
0 1
25 1
