27

29 12
1
26 8
16 4

28 35
13
6 28
20 28
22 21
25 23
11 10
22 31
0 15
6 34
0 28
16 28
8 23
6 19
11 22
20 2

31 46
25
5 11
29 42
0 38
9 33
24 3
0 10
13 31
26 11
14 32
9 17
16 42
26 42
8 14
26 29
10 3
17 38
26 3
23 26
18 21
14 19
10 29
21 39
15 13
23 35
12 22
10 3

29 3
13
10 0
8 1
16 0
12 1
20 1
13 0
5 2
16 1
12 0
3 1
19 0
21 0
10 2
3 4

6 24
7
2 4
0 16
2 9
2 3
1 2
3 4
3 0
2 5

16 49
17
4 0
10 45
7 48
4 29
9 36
4 28
2 45
7 36
9 26
13 5
14 22
10 17
9 22
5 11
0 32
0 19
14 33
9 3

3 14
22
0 12
0 1
0 2
2 0
0 10
2 4
2 13
2 7
0 1
0 11
0 12
1 1
2 9
2 0
2 7
1 11
2 4
0 5
1 13
0 13
1 7
1 3
18 4

17 19
1
14 14
11 5

27 12
14
11 7
17 5
7 4
5 9
10 4
2 5
2 4
21 11
25 3
22 2
14 3
0 4
5 1
24 6
3 1

8 4
19
4 2
3 3
0 1
3 0
5 1
0 0
1 2
2 1
6 1
6 1
3 1
0 0
6 0
7 3
0 0
3 0
3 1
3 3
6 2
2 5

26 33
5
4 12
3 24
14 15
25 30
20 5
16 3

26 24
23
18 13
24 9
4 14
9 5
3 6
22 6
20 19
1 5
7 17
5 19
15 22
5 14
21 23
2 22
19 16
1 5
24 18
24 18
11 19
2 22
8 9
13 3
13 10
4 2

24 17
27
2 13
15 9
23 0
16 0
5 3
14 16
21 8
2 9
20 16
2 8
10 12
23 5
17 11
19 4
14 14
6 13
18 5
11 16
14 0
4 0
9 10
10 6
18 7
9 9
11 11
6 2
19 16
8 3

28 1
2
5 0
12 0
5 3

37 41
11
12 39
20 31
17 32
29 5
18 31
32 15
2 24
8 21
20 37
16 16
15 16
5 2

35 45
36
33 40
19 20
22 33
19 6
5 29
18 36
6 12
30 38
25 13
32 22
2 21
29 6
14 10
29 8
17 23
33 2
32 44
17 7
16 21
8 28
17 44
13 34
5 23
0 3
21 2
5 36
23 23
6 22
27 0
22 16
21 16
28 30
1 6
25 25
20 34
33 14
3 5

23 29
1
0 15
9 3

15 30
6
14 28
6 24
13 6
3 7
13 15
10 11
15 5

20 29
3
9 7
12 7
17 1
7 5

6 12
40
1 6
5 9
2 3
0 9
1 2
2 4
5 3
5 11
3 11
4 2
4 11
0 1
4 5
4 10
0 2
1 1
1 8
3 2
1 1
3 6
2 9
1 4
3 4
4 3
4 5
0 4
4 11
0 2
0 2
1 7
1 2
3 10
3 10
4 7
4 8
1 9
3 3
4 0
0 7
4 10
2 4

21 37
3
1 35
13 27
12 9
13 5

40 20
35
20 13
33 16
36 4
9 2
21 2
9 3
24 9
35 13
7 11
27 8
27 8
4 0
29 4
27 12
12 5
27 12
29 19
5 9
38 6
2 6
22 3
22 2
31 19
7 11
32 13
5 4
39 19
1 18
23 12
24 14
17 16
35 0
7 12
13 5
18 13
14 1

21 47
38
1 25
10 46
12 34
15 17
4 31
1 20
17 34
10 10
0 10
0 4
11 27
18 30
14 3
17 11
5 46
4 35
13 30
12 13
0 3
16 22
1 42
6 3
1 19
8 23
19 21
10 24
14 4
16 24
2 43
19 24
2 25
3 6
3 25
17 13
18 45
18 33
12 1
9 17
2 4

37 15
37
25 3
20 2
12 3
19 4
22 2
2 4
21 13
33 6
9 12
33 0
0 1
29 10
25 1
26 9
32 11
25 7
21 8
30 9
15 3
2 7
14 2
34 7
34 7
0 7
16 13
4 10
23 13
35 0
17 1
13 7
10 0
15 3
26 11
14 11
36 2
12 6
15 14
5 2

30 24
32
2 12
19 19
18 20
9 16
16 0
4 13
0 0
4 9
1 18
4 1
4 6
10 14
18 7
5 9
25 8
24 19
20 3
1 4
26 6
0 15
20 20
5 23
16 12
24 11
17 5
8 14
13 22
19 13
7 23
15 19
1 4
16 17
6 2

24 17
8
21 15
1 15
2 5
10 13
20 10
10 3
19 13
8 0
6 4

31 39
31
3 12
9 7
1 5
11 38
27 27
10 32
20 32
12 9
10 14
27 9
12 33
23 24
19 9
9 26
25 7
4 26
4 9
8 23
24 21
3 29
25 23
27 5
9 9
25 4
2 1
12 21
30 25
15 21
2 32
20 32
24 26
4 2
