*** Life<Cell> 29x12 ***

Generation = 0, Population = 1.
------------
------------
------------
------------
------------
------------
------------
------------
------------
------------
------------
------------
------------
------------
------------
------------
------------
------------
------------
------------
------------
------------
------------
------------
------------
------------
--------0---
------------
------------

Generation = 4, Population = 3.
------------
------------
------------
------------
------------
------------
------------
------------
------------
------------
------------
------------
------------
------------
------------
------------
------------
------------
------------
------------
------------
------------
--------0---
------------
------------
------------
----0-------
------------
--------0---

Generation = 8, Population = 4.
------------
------------
------------
------------
------------
------------
------------
------------
------------
------------
------------
------------
------------
------------
------------
------------
------------
------------
--------0---
------------
------------
------------
------------
------------
--------0---
------------
0-------0---
------------
------------

Generation = 12, Population = 7.
------------
------------
------------
------------
------------
------------
------------
------------
------------
------------
------------
------------
------------
------------
--------0---
------------
------------
------------
----0-------
------------
--------0---
------------
0-----------
------------
----0-------
------------
--0---------
------------
0-----------

Generation = 16, Population = 4.
------------
------------
------------
------------
------------
------------
------------
------------
------------
------------
--------0---
------------
------------
------------
------------
------------
--------0---
------------
------------
------------
------------
------------
------------
------------
------------
------------
0-----0-----
------------
------------

*** Life<Cell> 28x35 ***

Generation = 0, Population = 13.
---------------0------------0------
-----------------------------------
-----------------------------------
-----------------------------------
-----------------------------------
-----------------------------------
-------------------0--------0-----0
-----------------------------------
-----------------------0-----------
-----------------------------------
-----------------------------------
----------0-----------0------------
-----------------------------------
-----------------------------------
-----------------------------------
-----------------------------------
----------------------------0------
-----------------------------------
-----------------------------------
-----------------------------------
----------------------------0------
-----------------------------------
---------------------0---------0---
-----------------------------------
-----------------------------------
-----------------------0-----------
-----------------------------------
-----------------------------------

Generation = 2, Population = 50.
-------------0-0-0--------0-0-0----
-----------------------------------
---------------0------------0------
-----------------------------------
-------------------0--------0-----0
-----------------------------------
-----------------0---0-0--0---0-0-0
-----------------------------------
-------------------0-0---0--0-----0
----------0-----------0------------
-----------------------0-----------
--------0---0-------0---0----------
-----------------------------------
----------0-----------0------------
----------------------------0------
-----------------------------------
--------------------------0---0----
-----------------------------------
-----------------------------------
-----------------------------------
---------------------0----0---00---
-----------------------------------
-------------------0---0----00---0-
-----------------------0-----------
---------------------0---------0---
---------------------0---0---------
-----------------------------------
-----------------------0-----------

Generation = 4, Population = 47.
-----------0-------0----0-------0--
-----------------------------------
---------------0---0--------------0
-----------------------------------
---------------0-------0----0------
-----------------------------------
---------------0-------01-----0----
----------0-----------0------------
-------------------0-------1-------
-----------------------------------
-------------------0--------0-----0
------0-------0---0-------0--------
-----------------------0----0------
-----------------------------------
-----------------------------------
----------0-----------0------------
------------------------0---0---0--
-----------------------------------
---------------------0---------0---
-----------------------------------
------------------------0---0---1--
-----------------------1-----------
-----------------0-------0-1-------
-----------------------------------
----------------------------0------
-------------------0-------0-------
---------------------1---------0---
-----------------------0-----------

Generation = 6, Population = 152.
---------0-0-0-0-0---00-0-0---0-0--
-----------------------------------
-----------0-0-0---0-0-00---0-----0
-----------------------------------
-------------0---0-0-0-0100-------0
----------0-----------0------------
-------------0-0-0-0-00*.100----0--
--------0---0-------0---1----------
---------------0-0-0-0-000--100---0
------0---0---0---0---0---0--------
-----------------0-0-0-0--110-0-0-0
----0---0---0-------0---0---0------
-------------------0-0---01-0-0---0
------0---0---0---0---0---0--------
-----------------------00-------0--
--------0---0-------0---1----------
---------------------01--------1--0
----------0-----------0------------
-------------------0---0-----0---0-
-----------------------0-----------
-----------------0---00--1-1---*--0
---------------------0---1---------
---------------0---0---*10-1-1--0--
-------------------0---1---1-------
-----------------0---1---000--00---
-----------------0---*-0-0---0-----
-------------------1---1----00---0-
-------------------0-1-0-0-0-------

Generation = 8, Population = 44.
-------0-----------01-------0------
-----------------------------------
-----------------------------------
----------0-----------0------------
-----------------------------------
-----------------------------------
-----------0---0----1--...0*------0
------------------------.----------
----------------------------.--1---
-----------------------------------
-----------------------------------
--0-----------0---0-----------0----
----------------------------*------
-----------------------------------
-------------------0-0------0--1--0
------------------------.----------
--------------------0--1----------0
-----------------------0-----------
-----------------------------------
----------0-----------0------------
--------------------1----.-----.--0
-----------------------*-----------
-------------0--------1.1--*-1-1---
-----------------------.-----------
---------------------.------1------
---------------0----1.0--------1---
-------------------.-----------0---
-----------------------------------

Generation = 10, Population = 151.
-----0-0-0-------01*.*1---0-0-0----
----------0-----------0------------
-------0-----------00-------0------
--------0---0-------0---0----------
-----------0---0----0-----10------0
----------0-----------1--0-1-------
---------0-------00---1..*-.-0-00-0
------------------------.0-1-------
-----------0---0----0-----01.0---00
--0-----------0---0-----------0----
----------------------------0--0---
0---0-------0-------0-------1---0--
-------------------0-0----1-.-10--0
--0-----------0---0-----------0----
-----------------0-000----0-011-11-
-----------------------1*----------
------------------01--*.-0--0--10--
----------0----------0*--0---------
-----------------------*-----------
--------0---0-------1---0----------
-------------0----0----10.-1-0-.1-0
----------0----------1-*01---------
-----------0---0------1*111.1--1-00
---------------0----0-1.-------1---
-------------0-------*1-0-01-11----
-------------0---10-1.0-0----1-.-0-
-------------------.--------10---0-
---------------0----0-0--------1---

Generation = 12, Population = 184.
---0-------0---01--..*11--------0--
-------------------0---------------
-------0---0---0---*0-----010-----0
------0-------0---0------111-------
-------0-----------1*---*-.----0---
----------------------.--*-.-1-----
-------0---0---01--1--....*.--0**--
--0-------0---0---1---10*--.100----
----------------------------.0-----
-------------------------0-11------
-----------0---0---010----1*---0---
0-----0---0---0---0---0---1-.-----1
--------------------1--00-11.11*0-0
-----------------------00---1------
---------------0-0-----*11-0*-1-..-
--0-------0---0---1----..-1---1----
----------------0--.1-..0--10-1.*-0
-------------------1-*.11--0-------
-------------0-----0-10.---000-0--0
------0-------0---1---0-*-0----0---
----------------0---*1-1*.-100-.-00
---------------1---0-11.-101-------
---------0-------00-1-1.**..1*-.-*-
----------0------------*01-----.---
-------------------0-.*-*--.--*-0-0
-----------0----1.*-1**-*-11---.---
-------------1----1*0-0-1---.0-----
---------------0---*0-0--------1---

Generation = 14, Population = 302.
-0-0-0-0-0----1-**-...-*10000-0-0--
------0-------0--01-0----011-------
---0-0-0---0---01--.---1-00.*100--0
----0---0---0----------0-*.10------
-----0---0------000*.--*.1.-0110100
--0---0---0---------1-*-0.0*110-1--
-----0-0------0-.-11*-**....1--*.-0
0---0---0------------1.0.*1..*0----
-------0--------0---00--*---.*110--
0-0---0-----------------10-1*-----0
---------0--------0*1*0--01.--10101
0-0-0------------------011--.1-01-*
-----------0-----0111--0-1-...1.*0-
0-0---0--------------0-*-0--.--1--1
-------------0-000-1-1-...1-.1.*..-
0---0---0-----------10-..--1---11--
-------------011-1*.11.*----*-...-0
--0---0---0------0-.-.**1-1--11----
-----------0---0-0-*0-0.0000-*-*--0
----0---0---0--1-------**0--00-*-1-
---------0---01--11-*--...---*-.-*-
------0---0--01---00011.110-1------
-------0---0---*--*-11**......1.1.-
--------0--10--10-1*10-.-111-1-.---
---------0---1---1-00.*1.0-.1-.--0-
---------01--*01-.*01.*1*1..-*-.---
-----------1---11--.**0-.-1-.01*0-0
-----------0-1-01--.0-*---0001-1-0-

Generation = 16, Population = 240.
------------0-*-**-...-.1------0---
---------------0-0*1--100----1-----
----------------.0-.-0-*--0*.-0----
----------0------11--0100*.**---1--
-----------------0-..-0*.*.-*.*-*0-
------------------0-.0*-0**.1.0-*-0
---0--------0---.-.-.-..*...*1-..--
-------------------1-..-**..*.0---1
-------0-----------1-011.---.*.1--*
-------------------1--11-0*..0-0---
------------------**-*-01*..--.-*-*
----0-0------------0-10-1.10.-0-*0*
-------------------1*------...-.**-
-------------------00-0*----.--.00-
---------------*--01--1...--.-.*..1
-----------------0*--*-*.-1--1--.1-
------------1--.01**11*.1-1-.0...1-
------------------0*0..*--.--1.000-
-------------------*---****--.-*1--
---------------.--*-1-1**0--*-0.0*-
------------0----.--*1-*.*1--.-.*.-
---------------100--0*-*.-*1-01--1-
-----0--------0*0**1.-****..**-*-.-
---------------1*-1*-0-*-11*-1-.-1-
-------------.--0----*.1.--*1**---1
-------0--.--*011*.***.*.1**0*-.-*-
-----------.--0.-1-...*-*0*0.*1.---
----------1----011-.*-**0-----1.---

Generation = 18, Population = 301.
----------0---.*.*1..**.*--1-110-0-
----------0--0-0--..-0**--**1--10--
------------0-0-.0-.-*0.---..10*-0-
--------0---0----..1--*0-**.*1--.--
---0--------0--0-*-..-*....0*.*-.-1
----------0-----00-1.*.10...-.*0.-0
-0---0-0--0---0-.-.-.*..*.*.*.1*.-0
-----------------0-.1.*-.**...0---*
---0-0---0--0----01-1-.-.-*-**.*--*
----0-0----------0--111*--*..-0*0-1
-------0--------01**-.-0...*-1.1*1*
--0-0-0-0--------0-0-1*1..*-.*0-*-*
---------------0-1***--11-**..-...1
----0-0------------*0--.-1--.0-.0--
------------00-.-1---1*...*-.*....-
----------------00.--*-..1.*1.--**-
----------0---1*-*..*...11.*.0...-1
---------------01-0*-*..*-.-1..0*01
----------------0--.*-1.*..*1*0*.-0
---------------.-1.-.-*..*1-.1-**.1
-----0----0----11.--.--*.*111*1**.-
-------------01-*-10-**..-.*--.0-1-
---0---0-----1*.0..1**.*.....**.**1
-------0-----0-1.-1.-**.-11.0--.1--
-----0------0.-1-11--..1.0-*..**--1
-----0---0.01.*1*...***..1.**.1.-*-
-----------*0-*.*1*.***1.-*0.*-*--0
-------00-1-0----11*.1..--1101..-0-

Generation = 20, Population = 290.
--------0-*--1*.*..***...*1.*.--10-
-----------1-0----*.--*.0*...*-.-10
---0----------0-*0-.-.-.1*1.*10.--1
------0------111-.*--0.-0....1--.-1
-------0----*110-.-.*-*..*.-.**-.*.
--------------10----.**.0...1*.-*--
-------01------*.1*-.*.**.**.***.--
----0-0---1----01--.*.***.*.*.-1-1.
---0-------1---0-*.-1-*-.-*1*..*1*.
---------------0--1----.*-...**.011
---0--------0-0-*1.*-*--....-..1.1*
0-0-----0-0----1----1***...*..*1*-*
-------0----0--0--...001.*....-....
----------------000.-1-*-1*1.--.---
-----------1---.-.1*0-*....1...*..-
----0-0-------1-**.0-*-.**.*.*-*..-
--------0---1-**1....**.-1...0**.-*
-------------00--1*.-..*.-.-...-*0*
-----0----------*1-..-........-..--
-------------00*-1.-.1....1-.1-....
--------0---0--.1.-1.**....*-.1..**
-------1---0101-*-*01*...-..--.--*0
-0-------001-...*..-**.......*****.
------------1--*.-**-.**1-..-1-..10
-----------0*.-11*1*-*.1*-**..*.001
---0----1-*-*.**.****.....*..**.-.1
-----1---1-.-1....***...*-.*.*-.*--
------1*--1**--1--*.....0--.01..1--

*** Life<Cell> 31x46 ***

Generation = 0, Population = 25.
----------0---------------------------0-------
----------------------------------------------
----------------------------------------------
----------------------------------------------
----------------------------------------------
-----------0----------------------------------
----------------------------------------------
----------------------------------------------
--------------0-------------------------------
-----------------0---------------0------------
---0-------------------------0----------------
----------------------------------------------
----------------------0-----------------------
-------------------------------0--------------
-------------------0------------0-------------
-------------0--------------------------------
------------------------------------------0---
--------------------------------------0-------
---------------------0------------------------
----------------------------------------------
----------------------------------------------
---------------------------------------0------
----------------------------------------------
--------------------------0--------0----------
---0------------------------------------------
----------------------------------------------
---0-------0-----------------0------------0---
----------------------------------------------
----------------------------------------------
------------------------------------------0---
----------------------------------------------

Generation = 3, Population = 290.
-------0-----0---------------------0-----0----
--------0---0-----------------------0---0-----
---------0---------------------------0-0------
------------0-------------------------0-------
---------0-0-0--------------------------------
--------0-0-0---------------------------------
---------0-0---0-0---------------0------------
---0------0---0---0----------0--0-0-----------
--0-0--------0-----0--------0-00-0-0----------
-0-0-0------0-----0-0-0----0-0010-0-0---------
0-0-0-0------0---0-0-0-0--0-0-0-00-0----------
-0-0-0--------0-0-000-0-0--0-0010-0-----------
--0-0--------0---00110-0-0--010--0------------
---0--------0-0--0-0000-0---01------------0---
-----------0-0-00-0-0110-----------0--0--0-0--
----------0-0-0-00-0--0-----------0--0-00-0-0-
-----------0-0-0--0---0----------0--0-0010-0-0
------------0-0------0-0--------0--0-0-0100-0-
-------------0----0-0-0-0-----------0-0000-0--
-------------------0-0-0-------------0110-0---
--------------------0-0---0--------0-000-0----
---0-----------------0---0-0------0---0-0-0---
--0-0-------------------0-0-0----0-0---0-0----
-0---0-----0-----------0-0-0----0-0-0---0-0---
0-----0---0-0-----------0-0---0--0-0-0-0-0-0--
---------0-0-0-----------0---0-0--0-0---0-0-0-
0-----0-0-0-0-0-------------0-0-0--0---0-000-0
-0---0---0-0-0-------------0-0-0--------00*00-
--0-0-----0-0---------------0-0---------00*00-
---0-------0-----------------0---------0-000-0
----------------------------------------0---0-

Generation = 6, Population = 335.
----0-0-0-0-0-0-0---------------0-0-0-0-0-0-0-
---------0---0--------------------------------
------0-0-0-0---------------------0-0-0-0-0---
-------0---0---0-0---------------0------------
---0----0-0-----0------------0------0-0-0-----
-----0---0---0-0-0-0-----------0---0----------
-0---0--------0---0---0----0---0------0-------
-------0---0-0-0-0---0-------1-0-0---0--------
---0---00---0---0--1----00---1--00------------
---------0-0---0---1---0---0-1-.-1-0---0------
-----0---00---0--0---100--10--00..10------0---
-------------0-0-0---0-----0-0-1-1-0-00-------
---0---0----0--1---*10-001---1--01--0---0---0-
---------0---0-1-1-0-----0---*-0-0-001--0-----
-0---0-------01--000-.11-0-0--10--0-------0---
-------0---0---1-1-0-------0---0-000--10--0---
---0-----------0-1-001-100--00--0-------1-----
---------0---0---1--------0--0--01-100--*1--0-
---0-----------0-0-0-000---0--0---1---0---1---
-----------0---0--------0---0--0-010-011--10--
-0-0-0-----0-----0-0-0---0---0--0-------0-0-0-
-------------0--------0---0---00-0-011-100---0
-0-0-0-0-0---0-----0---0---0---1--------0-0-0-
--------------------0---0---00--10-0-010-010--
---0-0---0-0---0-----0---0---0---0----0---1---
----------------------0---0---00---0-0-011--0-
---0---0-----0---0-----0---0---0---10---0-----
------------------------0---0----1---010--.---
-0-0-0-----0---0---------0---0---0----1--0*0--
--------------------------0--------00-----.-0-
-0---0---0-0-0-------------0-0-0--------0-*-0-

Generation = 9, Population = 271.
-0-0-------0-0-0---0---------0-0-0------------
--00------0-0-0-0------------00-0-0-----------
--0-0------0-----0----------0-0--0------------
---0------------------0------0----------------
---0---------------0-0-0-------0--------------
--0-0-----0-------010-0-------0.------0-------
---0-----0-0-0----010----------0-0---0-0------
------0-----0-0----0--0------.0.----------0---
-----0-0---0-0-----.-0-0--------1----010---0--
---0--0-0.-0-------.--0------.0*1.----*00-----
--0-0----01-0------1------.---11...-0----0----
---0-------0--0------0--------0*-.---1--------
-----------0-0-1-0*.*-01-----1-01.------------
----------010-0.-.-1-*-----0-.0------.--1-----
-----0----0*0-.---0**...-1-.1-.----0---0-0----
---00-0----0--0.---00---00---------.0-.-0-1---
--0-00-------0-1-1---.-.--0---0--0-----0.0-0--
---0-------0-00-0-0------------0-.0.--0...1---
----------0---0--1----------0-----.------0.---
-----------1-0--------0------0----.---..0-.---
---------------------0-0------------------1--0
-------------------0--0---------0----.-.-1-00-
-------------1------0------0---.100-------10-0
---0-------00-0--0--------0-1--1.--0--.---1.0-
--0-0-----0-00----0--------0----0-0---1---.0--
---0---------------0--------------0----1.**---
----------0-0-----0-0------------0-11---11110-
---0---------------0---------0---.0--1.1-0*0-0
--0-0-----0-0---------------0-0---0---.10-.-0-
-----------0-----------------0---0-1--0100.0-0
--0-0-----------------------------0----00-.-1-

*** Life<Cell> 29x3 ***

Generation = 0, Population = 13.
---
---
---
-0-
---
--0
---
---
-0-
---
0-0
---
00-
0--
---
---
00-
---
---
0--
-0-
0--
---
---
---
---
---
---
---

*** Life<Cell> 6x24 ***

Generation = 0, Population = 7.
----------------0-------
--0---------------------
---00----0--------------
0---0-------------------
------------------------
------------------------

*** Life<Cell> 16x49 ***

Generation = 0, Population = 17.
-------------------0------------0----------------
-------------------------------------------------
---------------------------------------------0---
-------------------------------------------------
0---------------------------00-------------------
-----------0-------------------------------------
-------------------------------------------------
------------------------------------0-----------0
-------------------------------------------------
----------------------0---0---------0------------
-----------------0---------------------------0---
-------------------------------------------------
-------------------------------------------------
-----0-------------------------------------------
----------------------0----------0---------------
-------------------------------------------------

Generation = 3, Population = 188.
----------------0-----0------0-----0--------0-0--
0----------------0---0------000---0--------0-0-0-
-0---------0------0-0------01100-0--------0-0-0-0
--0-------0-0------0------0000000----------0-0-0-
---0-----0-0-0-----------01*11*10---0-------0-0-0
--0-----0-0-0-0-----------000000---0-0-------0-0-
-0-------0-0-0--------0---00110---0---0-------0--
0---------0-0----0---0-0-0-000---0-----0---------
-----------0----0-0-0-0---0-0---------------0----
---------------0-0---0-----0-0---0-----0---0-0---
-----0--------0-0-0---0---0-0-----0---0---0-0-0--
----0-0--------0-0-0-010-0-0-----0-0-0-----0-0-0-
---0-0-0--------0-0--010--0-----0-0-0-------0-0--
--0-0-0-0--------0--0-0-0------0-0-0---------0---
---0-0-0-----------0-0-0-0----0-0-0-0------------
----0-0-------------0---0------0---0-------------

Generation = 6, Population = 187.
--0----------0-0-0-0-0-0-0-0-1-00-0-0-0--0-0-0-0-
---------0---0----------------------1-----------0
0-0-0----------0-0-0-0-000---10--10-1--0---0-0---
-------0---0---0------0---0-------0-0-0-------0-0
0-0-0-0------------0-011-.1.--.11--0-----0-------
-----0---0---0---1--0-------0---0-0-0-0-0---0-0-0
0-0-0----------1--------00--11---0---------------
-----0-0---0---0--0-------------0-0-0-0-0---0-0-0
0-0----------0---0---01---11.-00-0-------0-------
---0---0-0---1--0-------------0---0-0-0-0-0-0-0-0
0----------1---0---01--10---00-0---0---0---0-----
-0---0---0-0------0-----------0-0-0-0-0-0-----0-0
-------------0---00--0----1--0-------0---0---0---
---0-0-0---0--------0-.-----0-----0-0-0---------0
---------------01--1-------11----------0---0---0-
-0-0-0-0-0------------1---1---------0------------

Generation = 9, Population = 176.
----------010---------00-0--0-------1--0-0-------
0---------010----0---0-000-00------0----0--------
-0---------0----0-0---0--1-1..1--.----0----------
0-----0-0--------0--00----1000-0----1--------0---
---0-----0----------*...**..--..---0*10-----0-0--
--0-----0---------01-00---10-0-010--00-------0---
---0-0---------.--0100-0-10-1.00*10-----0-0-0----
----------------------0----0-0---0-----0-----0---
--------------0-----0-.---....-1-00-----0-0------
---------0---.-0-0----1--0----.00--0-0-----0-0---
-----0--0-0.--0---0-.1..1-0---0-0---0-0-----0----
0---0-0--0------------1--0--00---0---0-----------
-----0-----0-0-------------0110------------------
--0-------0------0----.--0-0100----------0---0---
-0---------0---1..1---1-0-1.10-0--------0-0-0-0-0
--------------0--0---0-0------0----------0---0-0-

*** Life<Cell> 3x14 ***

Generation = 0, Population = 17.
-00--0----0000
-0-0---0---0-0
0---0--0-0---0

Generation = 4, Population = 21.
1-.--0-10--*00
-.-0-1---0-*--
1-*100--01**1.

Generation = 8, Population = 17.
--.0*****--.-.
0.-.11---.1.0-
-0.*0-1.**....

Generation = 12, Population = 15.
--***.*.....-.
0.*..101-.1.--
-0***1-.......

Generation = 16, Population = 10.
.-...***....-.
-..**-*.*.-.--
1....1-*......

*** Life<Cell> 17x19 ***

Generation = 0, Population = 1.
-------------------
-------------------
-------------------
-------------------
-------------------
-------------------
-------------------
-------------------
-------------------
-------------------
-------------------
-------------------
-------------------
-------------------
--------------0----
-------------------
-------------------

Generation = 5, Population = 14.
-------------------
-------------------
-------------------
-------------------
-------------------
-------------------
-------------------
-------------------
-------------------
--------------0----
-------------0-0---
--------------0----
-------------------
----------0-------0
---------0-0-----0-
----------0---0---0
-------------0-0---

Generation = 10, Population = 12.
-------------------
-------------------
-------------------
-------------------
--------------0----
-------------------
------------0---0--
-------------------
--------------0----
-------------------
--------------0----
-------------------
------0-----0------
-------------------
----0---0---------0
-------------------
------0---------0--

*** Life<Cell> 27x12 ***

Generation = 0, Population = 14.
----0-------
------------
----00------
------------
------------
-0-------0--
------------
----0-------
------------
------------
----0-------
-------0----
------------
------------
---0--------
------------
------------
-----0------
------------
------------
------------
-----------0
--0---------
------------
------0-----
---0--------
------------

Generation = 1, Population = 52.
---0-0------
-----0------
---0110-----
----00------
-0-------0--
0-0-----0-0-
-0--0----0--
---0-0------
----0-------
----0-------
---0-0-0----
----0-0-0---
-------0----
---0--------
--0-0-------
---0--------
-----0------
----0-0-----
-----0------
------------
-----------0
--0-------0-
-0-0-------0
--0---0-----
---0-0-0----
--0-0-0-----
---0--------

Generation = 2, Population = 52.
--0--10-----
------------
--01*-10----
-0-------0--
----00------
---00--0---0
------------
-00---0--0--
----1-------
----1--0----
--0---0-----
-----0---0--
---00-------
-------0----
-0---0------
-----0------
---0--------
---0---0----
------------
-----0-----0
--0---------
---------0-0
0---0-0-----
---0-------0
--0-0---0---
-0---0------
------0-----

Generation = 3, Population = 136.
-0-00*10----
---000-0----
--1-.-*100--
0--0-0000-0-
-0---100-0-0
--01--0-0-0-
-0000-00-0-0
011000-00-0-
-000*000-0--
--00*0--0---
-0-00----0--
--00----0-0-
--011--0-0--
-0-0000-0---
0-0-0100----
-0-0010-----
--0100-0----
--010-0-0---
---0-0-0---0
--0-0-0---0-
-0-0-0---0--
0-0-0-0-0---
-0-----0-0--
0---0-0-0-0-
---0---0-0-0
0-------0---
-0-----0----

*** Life<Cell> 8x4 ***

Generation = 0, Population = 13.
00--
--0-
-0--
00-0
--0-
-0--
000-
---0

*** Life<Cell> 26x33 ***

Generation = 0, Population = 5.
---------------------------------
---------------------------------
---------------------------------
------------------------0--------
------------0--------------------
---------------------------------
---------------------------------
---------------------------------
---------------------------------
---------------------------------
---------------------------------
---------------------------------
---------------------------------
---------------------------------
---------------0-----------------
---------------------------------
---------------------------------
---------------------------------
---------------------------------
---------------------------------
-----0---------------------------
---------------------------------
---------------------------------
---------------------------------
---------------------------------
------------------------------0--

Generation = 3, Population = 70.
------------------------0--------
------------0----------0-0-------
-----------0-0--------0-0-0------
----------0-0-0------0-0-0-0-----
---------0-0-0-0------0-0-0------
----------0-0-0--------0-0-------
-----------0-0----------0--------
------------0--------------------
---------------------------------
---------------------------------
---------------------------------
---------------0-----------------
--------------0-0----------------
-------------0-0-0---------------
------------0-0-0-0--------------
-------------0-0-0---------------
--------------0-0----------------
-----0---------0-----------------
----0-0--------------------------
---0-0-0-------------------------
--0-0-0-0------------------------
---0-0-0-------------------------
----0-0-----------------------0--
-----0-----------------------0-0-
----------------------------0---0
---------------------------0-----

Generation = 6, Population = 68.
----------0-0-0------------------
--------------------0-------0----
--------0---0---0----------------
------------------0---0---0---0--
------0---0---0---0--------------
--------------------0---0---0----
--------0---0---0----------------
----------------------0---0------
----------0---00-----------------
------------------------0--------
------------00---0---------------
---------------------------------
-----------0---0---0-------------
---------------------------------
-----0---0---0---0---0-----------
---------------------------------
---0---0---0---0---0-------------
---------------------------------
-0---0---0---0---0---------------
------------------------------0--
---0---0---0---0-----------------
----------------------------0-0-0
-0---0---0-----------------------
--------------------------0-0-0--
---0---0-------------------------
------------------------0-0-0----

Generation = 9, Population = 75.
---------------------------------
------------0--------------------
-----------0-0--0-------0-------0
----0-------0--0-0--0--0-0-----0-
---0-0----------0--0-0--0-------0
----0----------0----0------------
--------------0-0----------------
---------------0-----------------
---------------------------------
---------------------------------
------------------------0--------
-----0------0----------0-0-------
----0-0----0-0----------0--------
-----0-0----0----------0---------
------0-0-------------0-0--------
-------0---------------0---------
------------------------------0--
-----------------------------0-0-
---------------------------------
-0-----------0---------------0-0-
0-0---------0-0---------------0--
-0-----------0-0-----------------
--------------0-0----------------
-----0---------0-----------------
----0-0---------------0-----0----
-----0---------------0-0---0-0---

Generation = 12, Population = 66.
----0-------0-------0------------
---------------------------------
--------0------11----------------
------------1-----.-----------0--
0-------0-------0-.-----1--------
---------------------------------
-----------01------1-------------
----------------0---------------0
----00------0-------0------------
---------------------------------
-------0-------0-------0---------
--------------------0-------0----
-0------01------0----------------
------------------------------0--
---0-------1-------0-------0-----
------------------------0-----0--
-0---0------00-------------------
--------------------------0-----0
-------0-------0-------0---------
--------------------------0-----0
-0-------0-------0---------------
----------------------0-----0-0--
-----------0-------0-------------
----------------------0-----0-0--
-----0---0---0-------------------
------------------0-----0-0-----0

Generation = 15, Population = 290.
-0----------1-1-1------0------0--
0-0--------0---000----0-0----0-0-
-0-0------1---*..*1--0-0-0--0-0-0
--0-0----0------10*00-1-0-00-0-0-
---0-0-----------0.-10-0-0-00-0--
--0-000--0--*------0000-0-0--0---
-0-011001-*1.*---1-1*100-0-------
0-00000-00-00---0-1-00000----0---
-01*11-0-01-1--*-0-*-0110---0-0--
-0000-0-0-00-00-1-0-*-00-0-0-0-0-
0-00-0-0-0-0**00-1-0-1--0---0---0
-0--0-0-0-0-00000-1-0------------
-----0-0-.-0-01*00-1--------0-0-0
-0----0-0-0-0-00000--------0-----
0-0----0-0-1-0-0110-------0---0-0
-0-0----0-0-0-0-00-0-----0---0-0-
--0-0----0-0-1-0--0-0---0---0-0--
---0------0-0-0----0-0-0---0-0---
-----------0-0------0-----0-0----
---0--------0----------0-0-0-----
--0-0---------------0-0-0-0------
-0-0-0---0---------0-0-0-0-------
0-0-0-0-0-0-------0-0-0-0--------
-0-0-0---0-0---0-0-0-0-0---------
--0-0-----0-0-0---0-0-0----------
---0-------0-------0-0-----------

*** Life<Cell> 26x24 ***

Generation = 0, Population = 20.
------------------------
-----0------------------
----------------------0-
------0-----------------
--------------0---------
--------------0----0----
------------------------
-----------------0------
---------0--------------
-----0------------------
------------------------
-------------------0----
------------------------
---0------0-------------
------------------------
----------------------0-
------------------------
------------------------
-------------0----------
----------------0-------
-------------------0----
-----------------------0
------0-----------------
------------------------
---------0--------0-----
------------------------

Generation = 2, Population = 71.
----------------------0-
---0--10----------------
--------------0-----0---
----01--0-----1----0----
------------0---0-----0-
------0-----0---0----0--
---------0----1---------
-----0--------00--------
-------0---0------------
---0---0---------0-0----
---------0--------------
---0-0----0------0---0--
------------------------
-0---0--0---0------0--0-
------------------------
---0------0---------0---
-------------0----------
----------------0-----0-
-----------0---0---0----
--------------0---0----0
------0------0---0---0--
----------------0----0-0
----0---00--------00----
-----------------------0
------00---0----0---0---
------------------------

Generation = 4, Population = 75.
--------------0-------0-
-0---1.--0----1----0----
------------------0---0-
--0--.----0---.--0------
---------00-------0-----
----------0----1--0----0
--------------.-------0-
------1------1-----0-0--
-----1-------01---------
-0-0-----10---0----0----
------------------------
---------------0-0----10
---------0--------------
-----011------0---------
-------------0----------
----------------0-01--0-
-------------------0----
---0------0------------1
------0--0-------0------
------------0-------0-1-
---------0-----0--0----0
-------------------1-*--
--0-------1--0----------
----------------1-------
-----1---0---00---01--0-
-----------------------0

*** Life<Cell> 24x17 ***

Generation = 0, Population = 27.
-----------------
-----------------
--------00---0---
-----------------
0----------------
---0-------------
--0----------0---
-----------------
-----------------
---------00------
------0-----0----
-----------0----0
-----------------
-----------------
0-------------0-0
---------0-------
0----------------
-----------0-----
-----0-0---------
----0-----------0
----------------0
--------0--------
-----------------
0----0-----------

Generation = 3, Population = 180.
-------0110-0-0--
0-----00000--0-0-
-0-0-01*11-0--0-0
--0-0-00000----0-
---0-0-0110------
--0---0-00-0---0-
-0-------0--0-0-0
------0-011-00-0-
-0---0--0000-10-0
--0-0--1-110*-00-
---0-0--1-*00-10-
0---0-0-00*0-11-1
-0---0-0-00--01--
0-0---0-0---0--0*
-0-0---0-0-----00
-----0010---0---0
-0-0---10-------1
0-0--0---0--0--0-
-0--0-0-0-00-000-
00---0----0-001-*
0-0--1----00-01-*
-0-0111--0-0--00-
0-000-000-0----01
-011---110------0

Generation = 6, Population = 167.
----000-..--10-0-
-0---1--10-------
---1-.***.*1-10--
---0---0-10------
-----10-1*---0---
-----0-01.--1---0
----0-0----0.-10-
---0-000--*-----0
0-0-----------1--
-0-00*---1-0.0---
0-0---10*0.0-0.-0
---0--1011*10*.*-
----00010----0*--
----11--1-------.
---00*0.-0----0-.
--01--0-0-0--0--0
-1-0-0-*-001--0-.
----101-*-010-010
-.-011-1-*-1-1*1-
0--11111*---.-.*.
.100---0-1000-.-.
*101..-1-01*01-0.
1-10---1-1--1-001
-..--101**1-0-0-1

*** Life<Cell> 28x1 ***

Generation = 0, Population = 2.
-
-
-
-
-
0
-
-
-
-
-
-
0
-
-
-
-
-
-
-
-
-
-
-
-
-
-
-

Generation = 3, Population = 8.
-
-
0
-
0
-
0
-
0
0
-
0
-
0
-
0
-
-
-
-
-
-
-
-
-
-
-
-

*** Life<Cell> 37x41 ***

Generation = 0, Population = 11.
-----------------------------------------
-----------------------------------------
------------------------0----------------
-----------------------------------------
-----------------------------------------
-----------------------------------------
-----------------------------------------
-----------------------------------------
---------------------0-------------------
-----------------------------------------
-----------------------------------------
-----------------------------------------
---------------------------------------0-
-----------------------------------------
-----------------------------------------
----------------0------------------------
----------------0------------------------
--------------------------------0--------
-------------------------------0---------
-----------------------------------------
-------------------------------0-----0---
-----------------------------------------
-----------------------------------------
-----------------------------------------
-----------------------------------------
-----------------------------------------
-----------------------------------------
-----------------------------------------
-----------------------------------------
-----0-----------------------------------
-----------------------------------------
-----------------------------------------
---------------0-------------------------
-----------------------------------------
-----------------------------------------
-----------------------------------------
-----------------------------------------

Generation = 2, Population = 43.
------------------------0----------------
-----------------------------------------
----------------------0---0--------------
-----------------------------------------
------------------------0----------------
-----------------------------------------
---------------------0-------------------
-----------------------------------------
-------------------0---0-----------------
-----------------------------------------
---------------------0-----------------0-
-----------------------------------------
-------------------------------------0---
----------------0------------------------
----------------1----------------------0-
--------------0---0-------------0--------
--------------0---0------------0---------
----------------1-------------0---0------
----------------0------------0-0-0---0---
--------------------------------0--------
-----------------------------0-0-0-0---0-
-----------------------------------------
-------------------------------0-----0---
-----------------------------------------
-----------------------------------------
-----------------------------------------
-----------------------------------------
-----0-----------------------------------
-----------------------------------------
---0---0---------------------------------
---------------0-------------------------
-----0-----------------------------------
-------------0---0-----------------------
-----------------------------------------
---------------0-------------------------
-----------------------------------------
-----------------------------------------

Generation = 4, Population = 43.
------------------------0----------------
-----------------------------------------
--------------------0-------0------------
-----------------------------------------
---------------------0-------------------
-----------------------------------------
------------------------0----------------
-----------------------------------------
-----------------0-------0-------------0-
-----------------------------------------
-----------------------------------------
----------------0------------------------
----------------1----0-------------0---0-
--------------------------------0--------
----------------.--------------0---------
------------0-------0--------------------
------------0-------0----------0-----0-0-
----------------.-----------0-------0----
---------------------------0-------0-----
----------------1------------------------
----------------0----------0-----0-0-----
--------------------------------0--------
-------------------------------0---------
-----------------------------------------
-------------------------------0-----0---
-----0-----------------------------------
-----------------------------------------
-----------------------------------------
---------------0-------------------------
-0-------0-------------------------------
-----------------------------------------
-----------------------------------------
-----------0-------0---------------------
-----0-----------------------------------
-----------------------------------------
-----------------------------------------
---------------0-------------------------

*** Life<Cell> 35x45 ***

Generation = 0, Population = 36.
---0-----------------------------------------
------0--------------------------------------
---------------------0-----------------------
---------------------------------------------
---------------------------------------------
-----------------------0-----0------0--------
------------0---------0----------------------
---------------------------------------------
----------------------------0----------------
---------------------------------------------
---------------------------------------------
---------------------------------------------
---------------------------------------------
----------------------------------0----------
----------0----------------------------------
---------------------------------------------
---------------------0-----------------------
-------0---------------0--------------------0
------------------------------------0--------
------0-------------0------------------------
----------------------------------0----------
--0-------------0----------------------------
----------------0----------------0-----------
-----------------------0---------------------
---------------------------------------------
-------------0-----------0-------------------
---------------------------------------------
0--------------------------------------------
------------------------------0--------------
------0-0------------------------------------
--------------------------------------0------
---------------------------------------------
----------------------0---------------------0
--0-----------0-------------------------0----
---------------------------------------------

*** Life<Cell> 23x29 ***

Generation = 0, Population = 1.
---------------0-------------
-----------------------------
-----------------------------
-----------------------------
-----------------------------
-----------------------------
-----------------------------
-----------------------------
-----------------------------
-----------------------------
-----------------------------
-----------------------------
-----------------------------
-----------------------------
-----------------------------
-----------------------------
-----------------------------
-----------------------------
-----------------------------
-----------------------------
-----------------------------
-----------------------------
-----------------------------

Generation = 3, Population = 7.
------------0-----0----------
-------------0---0-----------
--------------0-0------------
---------------0-------------
-----------------------------
-----------------------------
-----------------------------
-----------------------------
-----------------------------
-----------------------------
-----------------------------
-----------------------------
-----------------------------
-----------------------------
-----------------------------
-----------------------------
-----------------------------
-----------------------------
-----------------------------
-----------------------------
-----------------------------
-----------------------------
-----------------------------

Generation = 6, Population = 16.
---------0-0-0-0-0-0-0-------
-----------------------------
-----------0-0-0-0-0---------
-----------------------------
-------------0-0-0-----------
-----------------------------
---------------0-------------
-----------------------------
-----------------------------
-----------------------------
-----------------------------
-----------------------------
-----------------------------
-----------------------------
-----------------------------
-----------------------------
-----------------------------
-----------------------------
-----------------------------
-----------------------------
-----------------------------
-----------------------------
-----------------------------

Generation = 9, Population = 12.
------0-0-------------0-0----
-------0---------------0-----
-----------------------------
-----------------------------
-----------------------------
---------------0-------------
--------------0-0------------
-----------------------------
--------------0-0------------
---------------0-------------
-----------------------------
-----------------------------
-----------------------------
-----------------------------
-----------------------------
-----------------------------
-----------------------------
-----------------------------
-----------------------------
-----------------------------
-----------------------------
-----------------------------
-----------------------------

*** Life<Cell> 15x30 ***

Generation = 0, Population = 6.
------------------------------
------------------------------
------------------------------
-------0----------------------
------------------------------
------------------------------
------------------------0-----
------------------------------
------------------------------
------------------------------
-----------0------------------
------------------------------
------------------------------
------0--------0--------------
----------------------------0-

Generation = 5, Population = 77.
------------------------------
------------------------0-----
---0-------0-----------0-0----
--0-0-----0-0-----------0-----
---0-------0------------------
-----------0--------0-------0-
-------0--0-0------0-0-----0-0
------0-0--0--------0-------0-
------00-------0--------------
-----0--------010-------0---0-
--------0-----0*0------0-0-0-0
-------0-------0--------0-----
--0---0---00---0---0-------0-0
-0-0-0-0-01-0-0-0-0-0---0-----
--0---0----10--0---0---0-0-0-0

Generation = 10, Population = 67.
-----------0----------0-0-0---
-------0-------0--------------
---------0---0----------0-----
-----01--0---0-0-0------------
-----------.----0-------------
----0--10--.-0-0-0------------
--------------0---0---------0-
------.--------1--------------
---0---.------0*---0------0---
----0--11----1-.-1------------
-0---0--------0.01---0------0-
0----011-0----0--------0------
---0-------.-------00---------
0-0--0-1-.--1---0----0---0----
---------1-*-0----0-0-0-------

Generation = 15, Population = 198.
---00-0-0-0-01-*10-0---------0
--011----0--0--1-1--0-------0-
-000-10-----0-*-1*1--0-----0--
01*-0**0-1--0-0*-101--0---0---
00-*000-0--*-1--00011----0----
--0100..*-1.--0--0-*010-0-----
0-000--*1*-00-.*-1*11-1-------
---0-*.1-*-00-**-1---0010-----
0---1--.-00-.-**1..---1-00----
-01--0**.*1.*.1**.-100-1-10---
-00--*1*-*---*...-111**.*-00--
0---*0..0-*-0.1***1-00-0-0--0-
--0-00--0--.----1---*01-1----0
01-*.101..--*1-1--.11--0------
01-*-0---.-.000**-1**-1-------

*** Life<Cell> 20x29 ***

Generation = 0, Population = 3.
-----------------------------
-----------------------------
-----------------------------
-----------------------------
-----------------------------
-----------------------------
-----------------------------
-----------------------------
-----------------------------
-------0---------------------
-----------------------------
-----------------------------
-------0---------------------
-----------------------------
-----------------------------
-----------------------------
-----------------------------
-0---------------------------
-----------------------------
-----------------------------

Generation = 5, Population = 45.
-----------------------------
-----------------------------
-----------------------------
-----------------------------
-------0---------------------
------0-0--------------------
-------0---------------------
-------0---------------------
---0--0-0--0-----------------
--0-0--0--0-0----------------
---0---.---0-----------------
---0---.---0-----------------
-00-0--0--0-0----------------
0-00--0-0--0-----------------
-0-----0---------------------
-------0---------------------
-0---00-0--------------------
0-0-0-00---------------------
-----0-----------------------
0-0--------------------------

*** Life<Cell> 6x12 ***

Generation = 0, Population = 32.
-00-0--0-0--
-00-0-0000--
---00----0--
--000-0---00
0-00-0-00-00
---0-----0-0

*** Life<Cell> 21x37 ***

Generation = 0, Population = 3.
-------------------------------------
-----------------------------------0-
-------------------------------------
-------------------------------------
-------------------------------------
-------------------------------------
-------------------------------------
-------------------------------------
-------------------------------------
-------------------------------------
-------------------------------------
-------------------------------------
---------0---------------------------
---------------------------0---------
-------------------------------------
-------------------------------------
-------------------------------------
-------------------------------------
-------------------------------------
-------------------------------------
-------------------------------------

Generation = 5, Population = 40.
-------------------------------0-----
------------------------------0-0----
-------------------------------0-----
-------------------------------------
-----------------------------------0-
----------------------------------0-0
-----------------------------------0-
---------0---------------------------
--------0-0----------------0---------
---------0----------------0-0--------
---------------------------0---------
-----0-------0-----------------------
----0-0-----0-0--------0-------0-----
-----0-------0--------0-0-----0-0----
-----------------------0-------0-----
---------0---------------------------
--------0-0----------------0---------
---------0----------------0-0--------
---------------------------0---------
-------------------------------------
-------------------------------------

Generation = 10, Population = 30.
-------------------------------------
-------------------------0-------0---
---------0---------------------------
-------------------------------0---0-
-------0---0-------------------------
-------------------------0---0---0---
---------0---------------------------
---------------------------0---------
-------------------------------------
---------------------------------0---
-0---------------0-------------------
-------------------0-----------------
---0-----------0---1-----------------
-----------------1---0-----------0---
-0---------------0-------------------
-------------------0---------------0-
-------------------------------------
-------------------------------------
---------0---------------------------
-------------------------------------
-------0-0-0-------------------------

*** Life<Cell> 40x20 ***

Generation = 0, Population = 32.
--------------------
------------------0-
------0-------------
--------------------
0-------------------
----0----0----------
--------------------
-----------00-------
--------------------
--00----------------
--------------------
--------------------
-----0--------------
-----0--------------
--------------------
--------------------
--------------------
----------------0---
-------------0------
--------------------
-------------0------
--0-----------------
--00----------------
------------0-------
---------0----0-----
--------------------
--------------------
--------0---0-------
--------------------
----0--------------0
--------------------
-------------------0
-------------0------
----------------0---
--------------------
0------------0------
----0---------------
--------------------
------0-------------
-------------------0

Generation = 1, Population = 114.
------------------0-
------0----------0-0
-----0-0----------0-
0-----0-------------
-0--0----0----------
0--0-0--0-0---------
----0----0-00-------
----------0110------
--00-------00-------
-0110---------------
--00----------------
-----0--------------
----010-------------
----010-------------
-----0--------------
--------------------
----------------0---
-------------0-0-0--
------------0-0-0---
--------------------
--0---------0-0-----
-01----------0------
-0-10-------0-------
--00-----0-0-00-----
--------0-0-00-0----
---------0----0-----
--------0---0-------
-------0-0-0-0------
----0---0---0------0
---0-0------------0-
----0---------------
-------------0----0-
------------0-0-0--0
-------------0-0-0--
0------------0--0---
-0--0-------0-0-----
0--0-0-------0------
----0-0-------------
-----0-0-----------0
------0-----------0-

Generation = 2, Population = 107.
------0-------------
----------------0---
0---0---0-----------
----0----0--------0-
0-0---0-------------
--0---00----0-------
0-------------------
--000-----1--10-----
--------------------
01--10-----00-------
-----0--------------
--00-1--------------
---0---0------------
---0---0------------
-----1--------------
-----0----------0---
-------------0------
--------------0---0-
-----------0-0-0----
--0-------------0---
--10-------0-0-0----
0---0-------0-------
01--10---0---00-----
--1-------0---1-----
--00---0---01---0---
--------0-----------
---------0----0-----
----0-0-------0----0
--------------------
--0---0-0---0----0--
-------------0------
----0-----------00--
-----------0---0----
0------------10---00
----0--------1------
0-0--------0---00---
--0-----------------
0------------0-----0
--------0-----------
-----------------0--

Generation = 3, Population = 276.
-----0-0--------0---
0---0-0-0------0-0--
-0-010-0--------0-0-
--00100---0------0-0
--10001--0--0-----0-
-010-0-10--0-0------
-0-00-00--0-000-----
001-10---0-11*10----
0000-0----00000-----
1*11*-0---0110------
0000--0----00-------
-01--*00------------
----01010-----------
--0101010-----------
---00*00--------0---
----010------0-0-0--
-----0------0---0-0-
-----------0-0---0-0
--0-------0---0---0-
-01------------0-0--
00-1------0-0-------
1-1-1----0---000----
-*-1-10-0----1-0----
0-*-00-0----0-*00---
-0-10-0----1*000-0--
--00-------00-0-0---
----0-0---0--010---0
---0---0-0---010--0-
--0-0---0---0-0--0-0
-0-0-0---0-0----0-0-
--0-0-0-0-----0-0---
---0-0-----0-0--110-
0---0-----0-00---000
-0--0------00-1--011
--00-0-----00*-00-00
--100-----0-000110--
-010-------0-0-00--0
-00-----0---0-0---0-
0------0-0---0---0-0
--------0-------0-0-

Generation = 4, Population = 110.
0-----0-------------
----1----0----0-----
--0-------0---------
-----------00-------
--*-1---------------
0-*1-1--1----1----0-
------1-------------
-------00----.-10---
1----1--------------
*.--.010-0----------
--------------------
-----.-----00-------
-0-------0----------
-01*-----0------0---
-----.-------0------
--------------------
-----1-------0------
--0--0------0-------
--10-----0-------0--
------------0-------
--------------0--0--
*-----0---------0---
0.----10-----*------
--.---------1-.-1---
-----0----0-.-----0-
--1-0--------------0
--00----------------
----0---0-------0--0
---------0---01-----
0-------0------010--
--------------------
0-------0---01-0-*--
----1----0-------1--
----1-------1------*
------0------.------
--*-1----0-------1--
0-------0----1------
----------------0--0
--0---0---0---------
0------------0-0-0--

Generation = 5, Population = 277.
-0--00-0-0----0-----
0-00-00-0----0-0----
-0-01-------0-0-----
----1------110------
00*0----0--000----0-
--**0--1-0--0-0--0-0
0-00---------0-00-0-
0----0-110---.1*10--
*0--0*--00-----00---
..--.--1--0---------
0----000-0-00-------
-0---.---00110------
01-0----01000---0---
0--.0---010--0-0-0--
-000-.---0--0-0-0---
-----1--------------
--0-0*0-------0-----
-01-010--0-0-----0--
-0-100--0-0-----0-0-
--10-----0-0-00-----
0-----0-----00-0--0-
.0---01------000----
1.---1-10----.0-----
0-.--000--00--.0-00-
--0---0--0-1.---00--
-0*0------0---------
-0-10---0-------0---
--0--0-0-----010-00-
0---0---0-0-01*--0-0
-0-----0-----0-1-10-
------------00--0---
-0--0--0---01*---.0-
0--0*0----0--0-00*00
---0*00--0-0-1---01.
--0--0-0-0--0.---0-0
00.--00---0--0--1-0-
-01-0--0----0-0-00-0
0-0---0-0-0--0-0-00-
00-0-0-0-0-0-0-000-0
-00---0---0-0-----0-

Generation = 6, Population = 264.
----1-0-0-0---------
--1---10--------0---
--0---0-0---1-------
0-00*0--0-0-------0-
1-.-1-----0---------
--..110-1-0-1-------
1----0--0-----------
--10-1-**-1--.*.-1--
*1001*00------------
**--*--*-0--1--00---
----01---1----------
0110-.00-11--10-0---
-------1---1-0------
101.-1-1----0-0---0-
-1-1-.---1-0-0-0----
-0-0-*---0--0---0---
--1--.-0-0-0-0-0-0--
0--01--0--0-0-0-----
01--1--0---0-000-0-0
0-*--00---0-0-1-0---
--11--10-0--11-100-0
*-1-1---0-----1-0-0-
**--1---1000-*10-00-
10.-0-1---1-1-.-1-10
0-1---1-0--*.---1---
0-.---0-0--------0--
01--1----00--01---0-
0---0---0-0---*10-1-
--00---0----1-.00---
--0-0-0---0-0-0-1-1-
----0--------10-----
--0-1-0-0--1*.00-.1-
--0-.--0---0---1-.-1
0---.-1-010-1*10-1-.
0--------1---*---1--
1-.---10---00--1*--0
0-----0----0---0----
1-1-0----0---101-110
--------0---01------
--1--------0---00---

Generation = 7, Population = 389.
--00--10---0----0---
-0*010*10-0-0--0-0--
00--1-101000-0--0-0-
1---*1-01-111----0-0
*0.--01--0-00-----0-
--..-*1-*-1--1------
-000-----0--0-0--0--
----1-0.*--1-...1-0-
**11*.-1-00-0-0000--
*.--.0-*-101-00110--
--0--*--0---0000----
1--1-*1---*-1-1--0--
---0-1--01--010-0-0-
*1*.0--*01-0-----0-0
--0*0.-00*----0---0-
0101-.000-00-0-0----
0--00.01-10---0-0-0-
1--1-10-0-----10---0
1*--*--10-0--1-10---
10*--1-0---01-*-10--
-0**---10--0-*-*-10-
*0*0*01-100000*-1-1-
..-1-111--110**1-11-
*-*01-*0--*---*-*0-1
-0-100--10-*.--0*-00
--.-001-1-00-00-----
1*01*00-01-001--0-10
1-0-10---0100-.*--*0
00-10------0*1.-10--
-0101----0--1011*--0
---0-0--0-000*1-0---
-01-*--0-00-*.--1.--
0010.-0-00-1000-0.--
100-.0-01*10**---*1.
-0-----0-*-00.---*00
-0.--0-1000-1-0-*-0-
-01-001--001-1---00-
*----00---00-----*-1
0---0--0----1---0000
-0-0----0-0--00110--

Generation = 8, Population = 191.
--------------------
--.1*-.--01---0-----
--------------0-----
-0-0*---------------
*1.--1--0-----------
0-..1*--*---1----00-
11-1-0--0----0-0----
0--0*--**0--1.*.*--0
**--*.-*0----0-1----
*.-1.1-*0-1*----*-0-
-0--0*-------1------
-1-*-**0--.---------
-1-10*--------------
.-..1-0.-*---0------
-11.-*-1-.----------
--1*0.-----1--------
---11.1--*----1-----
--1*-*--1-------0---
*.--*0-------------0
--.-----0---*-.-----
01..---------.-.---0
*1.-.1----1-1-.----0
*.0-------**1..*----
.0.---.---.01-.-.--*
--1---1--1-**001*01-
0-.01-----110-1-----
-.1-.------11-------
--1-*-------10**0-.-
----1-------.-.0-1--
-----------0*-*-.-1-
--01--0------.-0-0-0
----*-------..-0-*--
---1*----1---11-1.0-
----.-1-*.--..---.-*
------0--.--1.0--.-1
1-.--11-----*0--*---
--*-1-------0-------
*-1-0--------1---.-*
1-------------0-----
-----------0-1--*--0

Generation = 9, Population = 320.
---01----00---0-----
--.*.0.-01*0-010----
-0-------00--010----
-1-1*---1-----0-----
*-*01*1010--0----00-
-0*.**11*0-0---00110
**-*-11-----0-0--000
-01-.-0..111-...*10-
**11.*0.1-00--0-0-00
*.1-.*-*--*.1---.--0
-1001.--0-000-0-0-0-
1--*-..10-.--1------
0*--1.01-1---1------
.-..*--.0.0-0-0-----
0*-.0*0-0.-0-0------
---.-.00-00-0-0-----
--1*-.-1-.00-0-00---
10*.-.-0------10-0-0
..1-*-0-----0---0-0-
-0.-01-0-0-0.0.-----
--..-0--0-0--.-.--01
.-*-.-1--0*0*0.0--11
*.-1-1---0*.**..0---
.-*---.--0.1*-.-.0-.
0---00-01-0..-1-*-*-
-0*1*01---*-10*-000-
1**-*-------*--00---
-0*-.0--------**1-.-
--01*0-----0.1.11---
--101-0---01.-*1.1--
-01*-0-0---00.-1-10-
--10*00--0--..-11*-0
--1**00---0-0**1-*--
---0.0*-..--..--0.-*
0------00.-0*.-00.0*
-0.--*-1---0*1-1.1-0
-0.-*-1----111--0--0
.-*-10-----------.1.
*00-0------0-1-00---
0---------0----1.00-

Generation = 10, Population = 305.
--0-*---------1-----
-0**.-.11-.1----0---
010-10--1---1---0---
-*0-.-0-*01-1-1--00-
*-.1-.*1--0--000----
0-....-*.---1--1----
*.-*0-*-0-00----01--
01-0.1-..**--*..**10
*.-***-.-01--0--10--
*.-1.*1*01..*0--.-01
0*11*.-01----1------
*1-.0**---*1-*--0-0-
-*0-**1------*------
.-.**--.1.-0---0----
1.1.-.-11.0---0-----
011*0.--01------0---
0--*1.--0*-10---1--0
*-..1.-11-000-*---0-
*.*-*0-1-0----0--0--
1-.0--0-0-0-*-.-1--0
-1..-1----101*-.-1--
.1.-*1-0--.-.-*--0--
.*0-----11....*.--10
.0.-1-*0-1.**-.-*--.
------11*11..-*-*-*0
0-.-.1*-10.---*01--0
*..1.00---01*-1-1-1-
--.-.10----01-..*0.-
--1*.------1*-.*----
--*------01*.-.*.*--
01-.-1--00--1.--0*1-
--*-.---0--1..-*-.1-
-0-..-10----1**--*0-
1--1.-.-..10..101.-*
---0----1.0-.*0--.1*
-1.--*1*--01.--*.-0-
01*0*-----0-*-0----1
*0*-*1------0--1-*-.
*---1-----------1---
1-1-0----0---10*.110

Generation = 11, Population = 393.
--10.0-00--0-0-00---
--...0.*-1.---1010--
1-10*1----0-*0101-0-
1.--*-10*---*0*--110
*-*-1.*---10011-000-
-0.***1.*------*-1--
*.0*11*0-0-1-0-----0
1*--.*-.*..-1..*..-1
*.1*..-*-1-0--01--0-
*.--..-.1-*.*10-.-1*
1.-*..0---00--0-0--0
.*1.1..-01.*-*10---0
-*11..-10-0-0.000-0-
.1..*-0.**--00--0---
*.*.-.0**.---0--0---
1-*.-.--1--10-0010-0
---.**--1.0--010*0--
*0..-.0---11--.00---
*..1*10*--00-111---0
*-*--1-0-010*-.0-00-
-**.-*-100--**-.-*01
*-.0*----0*0*-*011-1
**11-111*-*..*.*0-*1
.1*0--*---.*.0.0.0-.
00--0-**.-**.0*1*-*-
10.1*-.0--.110*-*001
...-.1100-1**-*0-0--
1-*-.--0---1*0..*1.-
-0-*.00--0-*.1.*----
0-*--0-----..-.*.*--
1*1.0-00---0-.-11.-0
00*0.00-1-0-..-*-.-0
---..0*1--01**.1-*--
--0*.-.0.*-1..*-*.1*
0001000--.-0**-00*-*
-*.--*-*-01**10*.110
--.-.010-011*--0-0--
.1.0.*0---0011--0.1.
*--0-----0--1100-000
*---10--0-0-0*-***-1

Generation = 12, Population = 337.
-0*1*1--1-0---1-----
0-...-.*1-*100---1--
*-*-.---1---*1-1--1-
-.--.1--.0--.-.-0--1
*1*1-..--0*-1*-01---
0-....*.*-1-1--*0*-0
*.1.*-.1----0-0--101
*.1-.*-..*.1-*.*..-*
*.*...0*--1-0---1010
*.1-..1*-1..*-1-.0-*
*.-*..-0-----1-0-0--
*.-.-..--*..1.--0--1
0.****-*1--11.-1----
**...-1...-0-----00-
*.**0*-...-001-----0
*-.*0*0--1-*1--1----
-01..*-1*.11-1*-.-00
*1.*-.1-10*-0-.1---0
*.****1*0-110*-*-0--
*0*---0-0-*1.0.1---0
0.*.-*---110..-.-.1-
*1.-.11-1-.-.-.1*---
*.**1**-*1...*..--.-
.*.---.00-.*.-.-.-1*
-1-11-**.1*..1.*.-.-
--***-.---.**1.-.11*
*.*1**--1-*..-.1---0
-0*-*-01-0-*.-...-.-
0--**-1-0--*.*.*----
1-.--100-0-.*0.*..10
*.*.---1----1.1**.11
-1.1.-1---11..0*-.11
00-..-.----***.*1*--
1--..-.1*.1-...-..**
111*-110-*-1..--1.-.
-*.0-.-*--*..*-..*--
--*0.1*-----.1-10101
.-*1.*---0-1---1-.**
*-01--0---0-*-----1-
.0--*100-0---.0*.*1*

Generation = 13, Population = 359.
-1*-**1-*-1-0--0-0--
1-..*0.**-*-1--01---
.-.0.1--*-0-.-------
-.-1.-1-*1--.-.011--
*-**1..---*--*--*---
--.....**0*----.1.11
*.**.-*--00-10-0---*
*.-0.*-**.*--***..1.
*.**.*-*11-01-0-*1-1
*.*-..-.--.**1--.-1*
*.-...-11---0-0-010-
*.1.1.*--..***-0--0-
-.****1**-0--.0--000
*....1-*..0-00-0011-
*.*.1.0...011*00-0--
*-..1.1---0.-0--1-0-
0-*...-*..---**0.01-
*-..-.*-*-.-10.*00-1
....*.-.10**1*-*--0-
*-.-011010.*.1.*10--
-.*.0*1-0**-*.-*0.--
**.0.*--*0.0.0.*.11-
*.**-..1.*......0-.1
**.--0.--1..*-*0.0*.
0*1---**.**..**..0.-
1-...-*010.**-.-**-*
...*..---1*..1.-10-1
11.-.1-*--1**0*..-.0
1--**0---00*.*..1-00
-0.0-*1-0-1*.-...*--
*.*.-10*000-*.-.*.**
0*.-.0---0*-..-.1.--
--1..-.10-0.**.*-*0-
-00..0.-**-1...0..*.
-*-*-*-11*--..-0-*1.
-..-1.1*0-*.*.0*..-0
--.1.-*--011**---*1-
.1.*.*0-0-0--10*-...
.0---01--0-0.10----0
.---*-11----0.1..***

Generation = 14, Population = 338.
-*.-*.*0*-*-10110-0-
--*..1..*-*-*01-*---
.-.1.*--.010.----0--
1.--.---**1-.0.1**1-
.-***..1-0*01.1-.-00
--..*..**1.01--****-
.****-*10-1-*-01--0*
*.1-.*0....-1....*-*
*.**..-***1---11**-*
*.*-..-.-1*..*1-.0-*
*.-*..-**1-0---01-1-
..*.*..1-*.**.---0--
-.*...*.*-1--.-1---1
..*..*-.*.-0--------
*..**.1*.*1-*.---10-
*1..*.*--11.--01--10
--...*1*..1--..-.---
.1..1..1*-*--1..----
....*.-.*1..*.-.00--
.0.01**--1...*..*1--
-.*.-.-11..-.*0.-.1-
*..1.*--.1.-*-**.**-
...*1.*-.*..**..-1.-
...01-.-0-...0*1.-*.
1.*1--........*..-.0
*-*..1*1-1.**1*0..-.
**....1---...**1----
-**-.*-.00*..-***1.-
*01*.1-0-1-..**.-11-
1-.11.-01-*..0..*.1-
*.*.0*1.1110..-.*.*.
-.*-.1--1-.1**-**.-1
00*..-**--1.*.**1*-1
1--**1.1..1-*..-...*
1*1*0*1--.-1..---*-*
-.*0-.-.--..*.1*..1-
-1**.-.-01--..0-0.*-
.*....1---11-*1*0.*.
.101--*---0-.-1--0-1
.0-0.1-*00---.*...**

*** Life<Cell> 21x47 ***

Generation = 0, Population = 38.
---00-----0------------------------------------
-------------------00----0----------------0----
-------------------------0-----------------0---
------0------------------0---------------------
-------------------------------0---0-----------
----------------------------------------------0
---0-------------------------------------------
-----------------------------------------------
-----------------------0-----------------------
-----------------0-----------------------------
----------0-------------0---------------------0
---------------------------0-------------------
-0-----------0--------------------0------------
------------------------------0----------------
---00------------------------------------------
-----------------0-----------------------------
----------------------0-0----------------------
-----------0-0--------------------0------------
------------------------------0--0-----------0-
---------------------0--0----------------------
-----------------------------------------------

*** Life<Cell> 37x15 ***

Generation = 0, Population = 35.
-0-----0-------
---------------
----0--0-------
---------------
----------0----
---------------
---------------
---------------
---------------
------------0--
0--------------
---------------
---0--0--------
-------0-------
--0--------0---
---0----------0
-------------0-
-0-------------
---------------
----0----------
--0------------
--------0----0-
--0------------
-------------0-
---------------
-0-0---0-------
---------0-0---
---------------
---------------
----------0----
---------0-----
---------------
-----------0---
0-----0--------
-------0-------
0--------------
--0------------

Generation = 2, Population = 111.
-0-000---0-----
---------------
-00--110-00----
---------------
----0--00---0--
---------------
----------0----
------------0--
0--------------
----------0---0
0-00--0--------
-------0----0--
001-11--0--0---
---1-0---0----0
0--00-0--0-----
-----0-0----0-0
--0------------
----0---------0
--0----------0-
-01---0-0----0-
0-0-1----------
----0-0---00-0-
0-0-0----------
-0-0---00--0-0-
--0------0-0---
-0-0-----1---0-
-------1-0-0-0-
-0-0---0--0----
-----------0---
--------0---0--
-------0-------
0-----0---0----
-------0-----0-
--0-0---0------
--0--0---0-0---
--1---0--------
1-0-0--0-------

Generation = 4, Population = 115.
-0-*0*-0--10---
---------------
1*-1-.-*0--1---
---------------
-0----1*------0
------------1--
0---0--0-------
---------------
---0--0---1----
-------00-----0
----1------0---
---1----------0
--.-.--0--1--0-
-1-.-------10--
------00-------
----0--0--0-0--
--01--0--0---0-
-0---1-00----0-
-----------0---
0-.1----0----*1
0---.-0------0-
---10--1-1--00-
0-----1--0-0---
----0----0---0-
--0------------
-0-0-0-11-10-*-
--0--0-.-*---*-
-------------1-
-----------0---
00-0---0------0
-----0-0-0-0-0-
0--------------
--1----0-------
----0----------
--01-----0-0---
1-1-1----------
1-----00---0---

*** Life<Cell> 30x24 ***

Generation = 0, Population = 31.
0--------------0--------
----0-------------0-----
------------0-----------
------------------------
-0----0--0---0----------
---------0-------------0
------------------------
-----------------------0
--------------0---------
----------------0-------
--------------0---------
------------------------
------------------------
----------------------0-
------------------------
-------------------0----
0-----------0----0------
-----0------------------
-------0------------0---
-------------0-----0----
---0----------------0---
------------------------
------------------------
------------------------
-----------0-------0----
--------0---------------
------0-----------------
------------------------
------------------------
------------------------

Generation = 2, Population = 110.
--0---------00-0-0------
--0---0---------0---0---
00----0--00--100--------
----0----1--------0----0
---00--11---1--0--------
-------0---0---------0--
-0----0--1---00---------
---------0------0----0--
------------0-0-1-------
--------------0---0----0
------------0-0-1-------
----------------0-----0-
--------------0---------
-------------------00---
0-----------0----0------
-----0-----------1---00-
0-0----0--0---00---10---
---0---1-----0----------
0--0-1---0--0----00-0-0-
-----0-----0---0-0---0--
-0---0-0----------0-0-0-
-------------0-----0----
---0-------0-------00---
--------0---------------
------0--0---0---0---0--
------1---0-------------
----0---1--0-------0----
--------0---------------
------0-----------------
------------------------

Generation = 4, Population = 117.
-1*-0-1--0-1**-----0----
1---0---01----1---0---00
*-------1----.-*0-------
---------*-------------0
001-----.10--110-0------
----10-------1--0-00-0--
---------.--1-*---------
-------------------0-0--
-0----0--10--0--.-1-----
---------0--0-------0-10
----------0-----.-1-----
-------------------0---1
0-----------0-0--0------
-----0----------0-1---0-
-------0------0-----1---
-------------0-1-.-1---1
--000---1----0--1--.*0--
-0-----.-1------------1-
---*-.-----0----1-------
---------1-----0-*-0---0
1------0---10---00-1----
-----1--0---------------
------00------------*---
-------------1-----1----
---0---1------------1--0
----1-.-----0-----------
--0-----.-0-------------
------------------------
-----------0-------0----
--------0---------------

Generation = 6, Population = 277.
-**-*--1--0..*0-00-0-0--
*-*----1-111---------1--
**0-1---.--00*-.--10----
-----0-0-*-0-11-1--0--1-
*-.*1---.1--*11*-0-1----
--11.-110*-0-*1001*-0---
0-0---0--.0-1-.1101-----
----00---*--11--100-0-1-
---00--1--*---*0.-1-1---
-------0--11--0---0-0-.-
00----0-000--01-.11-1---
-----0---0--1---110-1---
0-0----0----0--10-010---
---0---1-----0010-1-----
0-0001--10---00--11-111-
-0---0---0-0-*-10.1----1
00*0*1-*--0----11--..-01
---1---.-1-1-1---0--1---
011.1.-000-01-0--01100--
-0---0-111-0-0-0-.-*--10
1-00-*10--1.-1-0*00.10--
---0--01-10--0-0-1-----0
0--000--00-00---0000.-00
----00--0--01--0-0---0--
-01---*1-00-------0-1110
--1---*---1--10----0----
0--11--0.--11------00--0
----0---1---0-----------
--0------01--0---0---0--
------0-0-0-------------

*** Life<Cell> 24x17 ***

Generation = 0, Population = 8.
-----------------
---------------0-
-----0-----------
-----------------
-----------------
-----------------
-----------------
-----------------
0----------------
-----------------
---0---------0---
-----------------
-----------------
-----------------
-----------------
-----------------
-----------------
-----------------
-----------------
-------------0---
----------0------
---------------0-
-----------------
-----------------

Generation = 4, Population = 26.
-----0-----------
-----------0-----
-0-------0-------
-----------------
0----------------
---------------0-
---0-0-------0---
-----------------
--*-1------------
-----------------
-------0-0-------
-----------------
0----------------
-----------------
---0---------0---
-------------0---
----------0------
---------------0-
-----------------
---------0-------
------0-------0--
-----------0---0-
-----------------
-------------0-0-

*** Life<Cell> 31x39 ***

Generation = 0, Population = 30.
---------------------------------------
-----0---------------------------------
-0------------------------------0------
------------0----------------0---------
---------0----------------0------------
---------------------------------------
---------------------------------------
---------------------------------------
-----------------------0---------------
-------0-0----------------0------------
--------------0-----------------0------
--------------------------------------0
---------0-----------0-----------0-----
---------------------------------------
---------------------------------------
---------------------0-----------------
---------------------------------------
---------------------------------------
---------------------------------------
---------0-----------------------------
--------------------------------0------
---------------------------------------
---------------------------------------
------------------------0--------------
---------------------0----0------------
----0--0---------------0---------------
---------------------------------------
-----0---0-----------------0-----------
---------------------------------------
---------------------------------------
-------------------------0-------------

Generation = 2, Population = 112.
-0------------------------------0------
---0---0----0----------------0---------
---0-----0----------------0---0---0----
-----0----0---0------------0---0-------
-0-----0---0------------0---0---0------
------------0----------------0---------
---------0-------------0--0------------
-------0-0----------------0------------
--------------0------0---0------0------
-----0-0-0-0------------0---0---------0
---------1--0---0----0-0------0--10----
-------0-1----------------0---------0-0
-------0---0--0----0---0-------01--0---
---------------------1----------------0
---------0-----------1-----------0-----
-------------------0---0---------------
---------------------------------------
---------0-----------0-----------------
--------------------------------0------
-------0---0---------------------------
------------------------------0---0----
---------0--------------0--------------
---------------------0----0-----0------
----0--0--------------01--1------------
-------------------0---11---0----------
--0---1--------------1--10-0-----------
---------------------0----0------------
---01--0---0-----------0-0---0---------
-------------------------0-------------
-----0---0-----------------0-----------
-----------------------0-0-0-----------

Generation = 4, Population = 109.
-0-------0----------------0-----0------
-1---0---1-----------------------------
-0---1----------------------0-------0--
--------0-------0--------0-------0-----
-----1-------0--------01------0--------
-----0-1-1----------------1------------
-0------------0------------------------
------------0----------------0--------0
-------------------0-0----00-----1-----
---0-0-----0-0--------0-------1--------
----------1-------0---------1----.--1--
---------.-----------1------------1-0--
-----0-------1---0-----0-0---0--.----0-
-------1-1-----------.----0------------
--------------0------.----------1------
---------1-------0-------0------------0
---------1-----------1----------00-----
---------------------------------------
---------------------------------------
-----0-------0-------0--0--------------
---------------------0----0-0-------0--
----0--0---------------1---------------
---------------------------------------
-----1--------------0-----.11----------
-----------------0----0--0----0-0------
0--1----0--0-------1-.-----0-----------
-------------------------1-------------
-0--.1---0---0---------00------0-------
---------------------0---*1------------
----1--0---------------1---------------
---------------------0-------0---------
